…
So we have to do like this for each cyl. One thing you might have noticed is that we have separate results. Imagine doing some analysis on bigger data set and having to keep track of each result separately. It would be a nightmare. You might say we can achieve by using loops but they have their own disadvantages. We can achieve this easily by use of Purrr. Another thing which is crucial is use of ‘tibble’. A tibble is similar to traditional data frame but much more efficient. I like mostly of the fact that it can store ‘list columns’. Let me show this.

nested<-mtcars |> 
  group_by(cyl) |> 
  nest(cyl)

## Warning: All elements of `...` must be named.
## Did you want `data = cyl`?

nested

## # A tibble: 32 × 11
##      mpg  disp    hp  drat    wt  qsec    vs    am  gear  carb data        
##    <dbl> <dbl> <dbl> <dbl> <dbl> <dbl> <dbl> <dbl> <dbl> <dbl> <list>      
##  1  21    160    110  3.9   2.62  16.5     0     1     4     4 <grouped_df>
##  2  21    160    110  3.9   2.88  17.0     0     1     4     4 <grouped_df>
##  3  22.8  108     93  3.85  2.32  18.6     1     1     4     1 <grouped_df>
##  4  21.4  258    110  3.08  3.22  19.4     1     0     3     1 <grouped_df>
##  5  18.7  360    175  3.15  3.44  17.0     0     0     3     2 <grouped_df>
##  6  18.1  225    105  2.76  3.46  20.2     1     0     3     1 <grouped_df>
##  7  14.3  360    245  3.21  3.57  15.8     0     0     3     4 <grouped_df>
##  8  24.4  147.    62  3.69  3.19  20       1     0     4     2 <grouped_df>
##  9  22.8  141.    95  3.92  3.15  22.9     1     0     4     2 <grouped_df>
## 10  19.2  168.   123  3.92  3.44  18.3     1     0     4     4 <grouped_df>
## # … with 22 more rows
…
Ok! as mentioned each entry of that list is a separate data frame.

Now we can run regression on each entry of that list and store each model into another list column. For this we have to use map() function, which helps to iterate on each entry of that list and run regression.

model_nested<-nested |> 
  mutate(model = map(.x=data,.f =~lm(mpg~wt, data=.)))

model_nested

## # A tibble: 32 × 12
##      mpg  disp    hp  drat    wt  qsec    vs    am  gear  carb data        
##    <dbl> <dbl> <dbl> <dbl> <dbl> <dbl> <dbl> <dbl> <dbl> <dbl> <list>      
##  1  21    160    110  3.9   2.62  16.5     0     1     4     4 <grouped_df>
##  2  21    160    110  3.9   2.88  17.0     0     1     4     4 <grouped_df>
##  3  22.8  108     93  3.85  2.32  18.6     1     1     4     1 <grouped_df>
##  4  21.4  258    110  3.08  3.22  19.4     1     0     3     1 <grouped_df>
##  5  18.7  360    175  3.15  3.44  17.0     0     0     3     2 <grouped_df>
##  6  18.1  225    105  2.76  3.46  20.2     1     0     3     1 <grouped_df>
##  7  14.3  360    245  3.21  3.57  15.8     0     0     3     4 <grouped_df>
##  8  24.4  147.    62  3.69  3.19  20       1     0     4     2 <grouped_df>
##  9  22.8  141.    95  3.92  3.15  22.9     1     0     4     2 <grouped_df>
## 10  19.2  168.   123  3.92  3.44  18.3     1     0     4     4 <grouped_df>
## # … with 22 more rows, and 1 more variable: model <list>
…
But why do summary separately, if we know how to Purrr

model_nested_summarised<-model_nested |>  
  mutate(model_summary = map(.x = model, .f = ~summary(.)))

model_nested_summarised

## # A tibble: 32 × 13
##      mpg  disp    hp  drat    wt  qsec    vs    am  gear  carb data        
##    <dbl> <dbl> <dbl> <dbl> <dbl> <dbl> <dbl> <dbl> <dbl> <dbl> <list>      
##  1  21    160    110  3.9   2.62  16.5     0     1     4     4 <grouped_df>
##  2  21    160    110  3.9   2.88  17.0     0     1     4     4 <grouped_df>
##  3  22.8  108     93  3.85  2.32  18.6     1     1     4     1 <grouped_df>
##  4  21.4  258    110  3.08  3.22  19.4     1     0     3     1 <grouped_df>
##  5  18.7  360    175  3.15  3.44  17.0     0     0     3     2 <grouped_df>
##  6  18.1  225    105  2.76  3.46  20.2     1     0     3     1 <grouped_df>
##  7  14.3  360    245  3.21  3.57  15.8     0     0     3     4 <grouped_df>
##  8  24.4  147.    62  3.69  3.19  20       1     0     4     2 <grouped_df>
##  9  22.8  141.    95  3.92  3.15  22.9     1     0     4     2 <grouped_df>
## 10  19.2  168.   123  3.92  3.44  18.3     1     0     4     4 <grouped_df>
## # … with 22 more rows, and 2 more variables: model <list>, model_summary <list>
…
We can extract the necessary information from those list columns separately.

model_nested_summarised$model_summary[[1]][["r.squared"]]

## [1] 0.7528328

But lets go one step and get all ‘r.squared’ values of each model and store them under separate column with the help of Purrr.

model_nested_summarised |>  
  mutate(rsqr = map_dbl(.x=model_summary,.f = ~.[["r.squared"]]))

## # A tibble: 32 × 14
##      mpg  disp    hp  drat    wt  qsec    vs    am  gear  carb data        
##    <dbl> <dbl> <dbl> <dbl> <dbl> <dbl> <dbl> <dbl> <dbl> <dbl> <list>      
##  1  21    160    110  3.9   2.62  16.5     0     1     4     4 <grouped_df>
##  2  21    160    110  3.9   2.88  17.0     0     1     4     4 <grouped_df>
##  3  22.8  108     93  3.85  2.32  18.6     1     1     4     1 <grouped_df>
##  4  21.4  258    110  3.08  3.22  19.4     1     0     3     1 <grouped_df>
##  5  18.7  360    175  3.15  3.44  17.0     0     0     3     2 <grouped_df>
##  6  18.1  225    105  2.76  3.46  20.2     1     0     3     1 <grouped_df>
##  7  14.3  360    245  3.21  3.57  15.8     0     0     3     4 <grouped_df>
##  8  24.4  147.    62  3.69  3.19  20       1     0     4     2 <grouped_df>
##  9  22.8  141.    95  3.92  3.15  22.9     1     0     4     2 <grouped_df>
## 10  19.2  168.   123  3.92  3.44  18.3     1     0     4     4 <grouped_df>
## # … with 22 more rows, and 3 more variables: model <list>,
## #   model_summary <list>, rsqr <dbl>
…
